locationid,parent
010010,001
010130,016
010140,016
010290,016
010510,050
010520,050
010600,060
010610,060
010620,060
010630,060
010640,060
010650,060
010660,060
010680,060
010720,060
010721,060
010725,060
010810,081
011000,110
011010,110
011011,110
011012,110
011013,110
011014,110
011015,110
011016,110
011017,110
011020,110
011021,110
011030,110
011031,110
011040,110
011050,110
011051,110
011061,110
011081,110
011100,110
011110,110
011120,110
011140,110
011150,110
011160,110
011170,110
011190,110
011200,110
011220,110
011230,110
011250,110
011260,110
011270,110
011280,110
011290,110
011310,110
011311,110
011312,110
011320,110
011330,110
011340,110
011350,110
011360,110
011361,110
011370,110
011380,110
011390,110
011400,110
011420,110
011430,110
011450,110
011500,110
011510,110
011560,110
011580,110
011581,110
011582,110
011583,110
011584,110
011585,110
011586,110
011587,110
011588,110
011640,110
011698,167
011700,170
011710,170
011720,170
011730,170
011740,170
011750,170
011760,170
011770,170
011773,170
011775,170
011780,170
011781,170
011782,170
011783,170
011784,170
011785,170
011790,170
011800,170
011810,170
011820,170
011830,170
011850,185
011856,185
011870,185
011910,170
011930,185
011950,185
012000,200
012010,200
012020,200
012030,200
012040,200
012050,200
012060,200
012070,200
012080,200
012090,200
012100,200
012101,200
012102,200
012103,200
012110,200
012111,200
012112,200
012113,200
012120,200
012121,200
012122,200
012123,200
012130,200
012131,200
012132,200
012133,200
012140,200
012141,200
012142,200
012143,200
012150,200
012151,200
012152,200
012153,200
012160,200
012161,200
012162,200
012163,200
012170,200
012171,200
012172,200
012173,200
012180,200
012181,200
012182,200
012183,200
012190,200
012191,200
012192,200
012193,200
012200,200
012210,200
012211,200
012212,200
012213,200
012220,200
012221,200
012222,200
012223,200
012230,200
012231,200
012232,200
012233,200
012250,200
012252,200
012253,200
012254,200
012260,200
012310,200
012313,200
012315,200
012316,200
012317,200
012320,200
012321,200
012322,200
012323,200
012324,200
012325,200
012326,200
012330,200
012331,200
012332,200
012333,200
012334,200
012335,200
012336,200
012340,200
012341,200
012342,200
012343,200
012350,200
012351,200
012352,200
012353,200
012360,200
012361,200
012362,200
012363,200
012370,200
012371,200
012372,200
012373,200
012380,200
012381,200
012390,200
012391,200
012392,200
012400,200
012403,200
012410,200
012411,200
012412,200
012413,200
012420,200
012421,200
012422,200
012423,200
012430,200
012431,200
012432,200
012433,200
012440,200
012441,200
012442,200
012443,200
012450,200
012451,200
012452,200
012453,200
012460,200
012461,200
012462,200
012463,200
012470,200
012471,200
012472,200
012473,200
012480,200
012481,200
012482,200
012483,200
012490,200
012495,200
012500,250
012510,250
012530,250
012531,250
012540,250
012550,250
012570,250
012580,250
012590,250
012600,250
012610,250
012620,250
012630,250
012640,250
012650,250
012660,250
012680,250
012700,250
012710,250
012740,250
013000,300
013020,300
013050,300
013060,300
013090,300
013100,300
013105,300
013106,300
013107,300
013110,300
013120,300
013130,300
013140,300
013150,300
013160,300
013165,300
013170,300
013180,300
013190,300
013210,300
013220,300
013280,300
013290,300
013300,300
013310,300
013330,300
013331,300
013340,300
013350,300
013360,300
013430,300
013450,300
013470,300
013480,300
013490,300
013500,300
013510,300
013580,300
013590,300
013620,300
013630,300
013680,300
013700,300
013710,300
013730,300
013740,300
013750,300
013755,300
013775,300
013790,300
013800,300
013840,300
013850,300
013880,300
013890,300
013940,390
013960,300
014000,400
014030,400
014040,400
014060,400
014170,400
014230,400
014270,400
014280,400
014290,400
014305,400
014310,400
014340,400
014350,400
014370,400
014430,400
014460,400
014465,400
014520,400
014530,400
014540,400
014585,400
014590,400
014615,400
014620,400
014625,400
014650,400
014660,400
014670,400
014690,400
014695,400
014750,400
014770,400
014780,400
014800,400
014810,400
014820,400
014850,400
014860,400
014870,400
014880,400
014960,400
014976,400
015000,500
015100,500
015200,500
015400,500
015700,500
015800,500
015900,500
015910,500
016000,600
016010,600
016050,600
016090,600
016100,600
016150,600
016210,600
016220,600
016250,600
016290,600
016410,600
016500,650
016501,650
016510,650
016520,650
016521,650
016530,650
016540,650
016550,650
016560,650
016570,650
016575,650
016580,650
016590,650
016610,660
016620,660
016630,660
016640,660
016650,660
016730,660
016750,660
016800,660
016820,681
016830,681
016850,681
016860,681
016890,681
016900,690
016970,690
017010,701
017011,701
017020,701
017030,701
017031,701
017040,701
017060,701
017080,701
017090,701
017091,701
017110,701
017130,701
017131,701
017150,701
017151,701
017170,701
017171,701
017190,701
017191,701
018000,800
018012,800
018050,805
018105,810
018150,815
018170,815
018190,819
018195,819
018200,819
018220,819
018360,810
018400,840
018401,840
018402,840
018403,840
018404,840
018405,840
018406,840
018410,840
018500,850
018510,850
018560,850
018570,850
018610,850
018611,850
018612,850
018613,850
018614,850
018615,850
018616,850
018618,850
018619,850
018640,850
018660,850
018760,850
019780,978
019781,978
019782,978
019785,978
019786,978
019789,978
019790,978
019791,978
019793,978
019794,978
019795,978
019797,978
019798,978
019799,978
019801,978
019802,978
019803,978
019805,978
019806,978
019807,978
019809,978
019810,978
019811,978
019813,978
019814,978
019815,978
019817,978
019818,978
019819,978
019821,978
019822,978
019823,978
019825,978
019826,978
019827,978
019829,978
019830,978
019831,978
019837,978
019838,978
019839,978
019978,300
019998,000
020020,001
020090,001
020130,016
020140,016
020160,016
020500,050
020510,050
020520,050
020600,060
020610,060
020700,060
020810,081
021000,110
021030,110
021040,110
021050,110
021060,110
021100,110
021110,110
021120,110
021130,110
021140,110
021160,110
021170,110
021180,110
021190,110
021200,110
021210,110
021220,110
021230,110
021240,110
021260,110
021280,110
021290,110
021300,110
021310,110
021320,110
021330,110
021340,110
021350,110
021360,110
021370,110
021380,110
021390,110
021400,110
021600,110
021665,167
021675,167
021676,167
021677,167
021678,167
021685,167
021695,167
021760,170
021770,170
021800,170
021810,170
021820,170
021830,170
021840,170
021845,170
021950,185
021970,185
022000,200
022010,200
022020,200
022030,200
022050,200
022090,200
022100,200
022110,200
022120,200
022130,200
022150,200
022160,200
022170,200
022190,200
022520,250
022540,250
022570,250
022610,250
022620,250
022630,250
022640,250
022650,250
022660,250
022670,250
022675,250
022690,250
022700,250
023000,300
023030,300
023040,300
023060,300
023080,300
023092,300
023100,300
023120,300
023170,300
023180,300
023190,300
023200,300
023220,300
023230,300
023240,300
023260,300
023290,300
023330,300
023340,300
023350,300
023370,300
023390,300
023400,300
023410,300
023490,300
023580,300
023600,300
023610,300
023620,300
023630,300
023640,300
023670,300
023685,300
023691,300
023695,300
023720,300
023730,300
023731,300
023750,300
023760,300
023790,300
023800,300
023820,300
023830,300
023840,300
023860,300
023870,300
023880,300
023890,300
023910,390
023930,390
023950,300
023970,300
024000,400
024010,400
024030,400
024040,400
024050,400
024110,400
024120,400
024155,400
024160,400
024170,400
024180,400
024210,400
024220,400
024260,400
024270,400
024300,400
024390,400
024410,400
024420,400
024430,400
024510,400
024580,400
024610,400
024660,400
024710,400
024720,400
024730,400
024780,400
024930,400
024940,400
024960,400
024970,400
025000,500
025020,500
025030,500
025050,500
025120,500
025150,500
025170,500
025180,500
025210,500
025250,500
025270,500
025280,500
025300,500
025310,500
025320,500
025340,500
025350,500
025360,500
025370,500
025430,500
025450,500
025480,500
025490,500
025510,500
025520,500
025530,500
025540,500
025550,500
025560,500
025570,500
025590,500
025610,500
025620,500
025640,500
025650,500
025670,500
025680,500
026010,600
026030,600
026040,600
026050,600
026500,650
026510,650
026520,650
026530,650
026540,650
026550,650
026570,650
026585,650
026600,660
026610,660
026810,681
026820,681
026830,681
026835,681
026890,681
026900,690
027010,701
027020,701
027030,701
027040,701
027060,701
027070,701
027090,701
027110,701
027130,701
027150,701
027170,701
027190,701
027205,701
028000,800
028050,805
028100,810
028150,815
028190,819
028200,819
028400,840
028411,840
028603,850
028660,850
028870,850
028920,850
029780,978
029781,978
029782,978
029783,978
029784,978
029785,978
029786,978
029789,978
029790,978
029791,978
029793,978
029794,978
029795,978
029797,978
029798,978
029799,978
029801,978
029802,978
029803,978
029805,978
029806,978
029807,978
029809,978
029810,978
029811,978
029813,978
029814,978
029815,978
029817,978
029818,978
029819,978
029821,978
029822,978
029823,978
029825,978
029826,978
029827,978
029829,978
029830,978
029831,978
029833,978
029834,978
029835,978
029837,978
029838,978
029839,978
029840,978
029841,978
029842,978
029905,990
029910,990
029915,990
029925,990
029935,990
029998,000
030010,001
030130,016
030140,016
030150,016
030160,016
030170,016
030500,050
030540,050
030620,060
030630,060
030810,081
031000,110
031010,110
031020,110
031030,110
031040,110
031050,110
031060,110
031070,110
031080,110
031100,110
031110,110
031120,110
031130,110
031140,110
031150,110
031180,110
031190,110
031200,110
031210,110
031220,110
031230,110
031240,110
031260,110
031280,110
031290,110
031300,110
031310,110
031320,110
031330,110
031340,110
031410,110
031420,110
031430,110
031440,110
031672,167
031675,167
031700,170
031710,170
031720,170
031730,170
031740,170
031750,170
031760,170
031770,170
031780,170
031790,170
031850,185
031860,185
032000,200
032010,200
032020,200
032030,200
032050,200
032051,200
032052,200
032053,200
032060,200
032061,200
032062,200
032063,200
032064,200
032065,200
032070,200
032071,200
032072,200
032073,200
032074,200
032075,200
032076,200
032080,200
032081,200
032082,200
032084,200
032085,200
032090,200
032094,200
032095,200
032100,200
032110,200
032111,200
032112,200
032113,200
032130,200
032131,200
032134,200
032140,200
032160,200
032162,200
032180,200
032200,200
032203,200
032210,200
032213,200
032220,200
032223,200
032230,200
032234,200
032240,200
032242,200
032250,200
032280,200
032283,200
032290,200
032293,200
032300,200
032310,200
032313,200
032320,200
032323,200
032330,200
032333,200
032340,200
032350,200
032353,200
032360,200
032363,200
032370,200
032373,200
032374,200
032375,200
032380,200
032383,200
032430,200
032433,200
032500,250
032510,250
032520,250
032530,250
032540,250
032550,250
032560,250
032570,250
032580,250
032590,250
032600,250
032610,250
032640,250
032670,250
032800,250
032910,250
033000,300
033020,300
033030,300
033040,300
033050,300
033060,300
033070,300
033080,300
033110,300
033120,300
033190,300
033200,300
033210,300
033220,300
033230,300
033240,300
033250,300
033340,300
033370,300
033400,300
033410,300
033420,300
033440,300
033470,300
033480,300
033490,300
033500,300
033510,300
033520,300
033530,300
033540,300
033560,300
033570,300
033590,300
033600,300
033610,300
033630,300
033640,300
033650,300
033670,300
033680,300
033710,300
033720,300
033740,300
033750,300
033760,300
033780,300
033790,300
033800,300
033810,300
033830,300
033840,300
033850,300
033860,300
033870,300
033880,300
033890,300
033920,300
033940,300
033941,300
033990,300
033991,300
034000,400
034010,400
034020,400
034030,400
034040,400
034050,400
034060,400
034070,400
034080,400
034100,400
034110,400
034120,400
034130,400
034160,400
034280,400
034290,400
034300,400
034320,400
034370,400
034410,400
034411,400
034412,400
034413,400
034440,400
034500,400
034510,400
034520,400
034530,400
034540,400
034550,400
034560,400
034570,400
034600,400
034610,400
034650,400
035000,500
035010,500
035020,500
035030,500
035060,500
035080,500
035090,500
035100,500
035130,500
035140,500
035150,500
035180,500
035200,500
035210,500
035230,500
035240,500
035250,500
035260,500
035270,500
035280,500
035290,500
035310,500
035360,500
035370,500
035390,500
035400,500
035410,500
035420,500
035460,500
035470,500
035500,500
035510,500
035520,500
035550,500
035560,500
035570,500
035580,500
035600,500
035610,500
035630,500
035640,500
035700,500
035710,500
035830,500
035850,500
035870,500
035900,500
036050,600
036060,600
036070,600
036080,600
036500,650
036510,650
036520,650
036530,650
036550,650
036580,650
036590,650
036640,660
036700,660
036730,660
036750,660
036810,681
036820,681
036830,681
037010,701
037020,701
037040,701
037041,900
037042,900
037043,900
037044,900
037045,900
037060,701
037070,701
037090,701
037100,701
037110,701
037130,701
037150,701
037170,701
037190,701
038030,805
038150,815
038160,815
038190,819
038191,819
038400,840
038740,850
038750,850
038760,850
038770,850
039760,976
039780,978
039781,978
039782,978
039783,978
039784,978
039785,978
039786,978
039789,978
039790,978
039791,978
039793,978
039794,978
039795,978
039797,978
039798,978
039799,978
039801,978
039802,978
039803,978
039805,978
039806,978
039807,978
039809,978
039810,978
039811,978
039813,978
039814,978
039815,978
039817,978
039818,978
039819,978
039821,978
039822,978
039823,978
039825,978
039826,978
039827,978
039829,978
039830,978
039831,978
039833,978
039834,978
039835,978
039837,978
039838,978
039839,978
039900,990
039901,990
039902,990
039903,990
039904,990
039905,990
039906,990
039907,990
039908,990
039909,990
039924,990
039998,000
050010,001
050120,016
050130,016
050510,050
050520,050
050530,050
050600,060
050610,060
050700,060
050810,081
050840,081
051000,110
051010,110
051020,110
051029,110
051043,110
051060,110
051090,110
051091,110
051100,110
051110,110
051111,110
051112,110
051113,110
051114,110
051116,110
051120,110
051121,110
051130,110
051140,110
051150,110
051160,110
051170,110
051180,110
051190,110
051200,110
051210,110
051220,110
051230,110
051250,110
051260,110
051270,110
051280,110
051300,110
051310,110
051320,110
051330,110
051350,110
051360,110
051370,110
051390,110
051400,110
051410,110
051430,110
051460,110
051500,110
051530,110
051570,110
051590,110
051600,110
051620,110
051673,167
051674,167
051689,167
051700,170
051710,170
051720,170
051721,170
051723,170
051725,170
051730,170
051732,170
051733,170
051744,170
051745,170
051746,170
051747,170
051750,170
051752,170
051761,170
051762,170
051764,170
051765,170
051780,170
051790,170
051791,170
051799,170
051851,185
051852,185
051853,185
051856,185
051857,185
051859,185
051861,185
051862,185
051863,185
051865,185
051875,185
051950,185
052000,200
052010,200
052030,200
052120,200
052130,200
052160,200
052220,200
052230,200
052250,200
052270,200
052300,200
052350,200
052370,200
052390,200
052391,200
052500,250
052510,250
052520,250
052530,250
052610,250
052620,250
052630,250
052640,250
052660,250
052710,250
052720,250
052730,250
052740,250
052760,250
052810,250
053010,300
053020,300
053030,300
053040,300
053070,300
053090,300
053100,300
053113,300
053119,300
053121,300
053122,300
053124,300
053130,300
053133,300
053134,300
053137,300
053158,300
053159,300
053170,300
053200,300
053204,300
053206,300
053212,300
053219,300
053220,300
053225,300
053228,300
053256,300
053271,300
053272,300
053274,300
053275,300
053276,300
053300,300
053306,300
053310,300
053311,300
053313,300
053314,300
053316,300
053320,300
053340,300
053348,300
053400,300
053420,300
053500,300
053526,300
053530,300
053590,300
053600,300
053601,300
053602,300
053603,300
053621,300
053660,300
053680,300
053690,300
053710,300
053750,300
053790,300
053795,300
053796,300
053797,300
053800,300
053860,300
053880,300
053890,300
053900,390
053950,390
054000,400
054040,400
054050,400
054051,400
054070,400
054080,400
054090,400
054110,400
054111,400
054112,400
054113,400
054115,400
054116,400
054117,400
054130,400
054200,400
054206,400
054210,400
054220,400
054230,400
054231,400
054240,400
054241,400
054250,400
054260,400
054270,400
054271,400
054272,400
054273,400
054300,400
054310,400
054320,400
054400,400
054410,400
054460,400
054470,400
054510,400
054530,400
054560,400
054690,400
054770,400
054800,400
054801,400
054802,400
054803,400
054804,400
054805,400
054806,400
054807,400
054808,400
054813,400
054890,400
055000,500
055010,500
055011,500
055021,500
055031,500
055070,500
055083,500
055090,500
055203,500
055223,500
055360,500
055390,500
055400,500
055410,500
055420,500
055430,500
055435,500
055440,500
055450,500
055470,500
055490,500
055500,500
055510,500
055511,500
055520,500
055540,500
055550,500
055560,500
055570,500
055580,500
055590,500
055600,500
055610,500
055620,500
055630,500
055650,500
055660,500
055670,500
055680,500
055690,500
055741,500
055745,500
055770,500
055780,500
055790,500
055800,500
055810,500
056000,600
056100,600
056200,600
056300,600
056301,600
056400,600
056420,600
056500,650
056501,650
056502,650
056503,650
056510,650
056511,650
056512,650
056520,650
056530,650
056563,650
056582,650
056583,650
056610,661
056650,660
056750,660
056810,681
056820,681
056830,681
056840,681
056900,690
057010,701
057020,701
057030,701
057040,701
057060,701
057070,701
057090,701
057100,701
057110,701
057120,701
057130,701
057140,701
057150,701
057160,701
057170,701
057190,701
057200,701
058000,800
058030,805
058150,815
058190,819
058198,819
058400,840
058500,850
058504,850
058510,850
058530,850
058545,850
058590,850
058615,850
058787,850
058788,850
058870,850
059020,900
059778,978
059780,978
059781,978
059782,978
059783,978
059784,978
059785,978
059786,978
059789,978
059792,978
059793,978
059794,978
059795,978
059796,978
059797,978
059801,978
059805,978
059807,978
059809,978
059810,978
059811,978
059813,978
059815,978
059817,978
059819,978
059821,978
059822,978
059838,978
059870,987
059871,987
059872,987
059998,000
060010,001
060020,001
060120,016
060130,016
060140,016
060150,016
060160,016
060170,016
060500,050
060501,050
060600,060
060700,060
060710,060
060810,081
061010,110
061020,110
061026,110
061030,110
061050,110
061060,110
061120,110
061130,110
061140,110
061150,110
061160,110
061180,110
061190,110
061200,110
061250,110
061270,110
061280,110
061300,110
061380,110
061430,110
061440,110
061450,110
061460,110
061470,110
061480,110
061490,110
061500,110
061510,110
061520,110
061530,110
061540,110
061550,110
061560,110
061570,110
061580,110
061590,110
061600,110
061610,110
061620,110
061630,110
061680,167
061730,170
061740,170
061750,170
061756,170
061757,170
061759,170
061760,170
061770,170
061775,170
061780,170
061786,170
061830,170
061850,185
061860,185
061866,185
061869,185
061870,185
061880,185
062000,200
062010,200
062020,200
062030,200
062031,200
062040,200
062041,200
062042,200
062043,200
062044,200
062045,200
062046,200
062047,200
062048,200
062050,200
062090,200
062100,200
062101,200
062104,200
062106,200
062110,200
062111,200
062113,200
062139,200
062150,200
062159,200
062160,200
062161,200
062162,200
062163,200
062180,200
062210,200
062220,200
062221,200
062226,200
062228,200
062230,200
062240,200
062250,200
062260,200
062261,200
062262,200
062263,200
062270,200
062280,200
062290,200
062310,200
062311,200
062320,200
062330,200
062340,200
062350,200
062360,200
062380,200
062390,200
062500,250
062501,250
062502,250
062503,250
062504,250
062505,250
062506,250
062507,250
062508,250
062509,250
062510,250
062520,250
062530,250
062540,250
062550,250
062560,250
062570,250
062580,250
062606,250
062609,250
063000,300
063010,300
063020,300
063040,300
063050,300
063070,300
063071,300
063090,300
063100,300
063110,300
063120,300
063131,300
063140,300
063150,300
063170,300
063200,300
063210,300
063230,300
063250,300
063260,300
063270,300
063291,300
063300,300
063301,300
063310,300
063320,300
063330,300
063340,300
063350,300
063360,300
063370,300
063380,300
063390,300
063400,300
063410,300
063420,300
063440,300
063500,300
063506,300
063530,300
063540,300
063550,300
063560,300
063580,300
063590,300
063680,300
063700,300
063701,300
063720,300
063730,300
063740,300
063810,300
063840,300
063900,300
063930,300
063940,300
063950,300
063990,390
063991,390
064050,400
064060,400
064066,400
064070,400
064110,400
064122,400
064160,400
064170,400
064180,400
064190,400
064200,400
064210,400
064250,400
064410,400
064411,400
064430,400
064440,400
064450,400
064460,400
064480,400
064490,400
064510,400
064520,400
064530,400
064540,400
064560,400
064610,400
064620,400
064640,400
064720,400
064730,400
064740,400
064790,400
064800,400
064810,400
064830,400
064890,400
064900,400
064910,400
064920,400
065000,500
065020,500
065030,500
065036,500
065120,500
065290,500
065400,500
065410,500
065510,500
065520,500
066000,600
066010,600
066040,600
066050,600
066060,600
066071,600
066080,600
066500,650
066510,650
066520,650
066530,650
066540,650
066546,650
066550,650
066560,650
066610,661
066630,663
066650,660
066750,660
066820,681
066830,681
066840,681
066900,690
067010,701
067011,701
067020,701
067030,701
067040,701
067050,701
067060,701
067070,701
067080,701
067090,701
067110,701
067130,701
067150,701
067170,701
067190,701
067250,701
068000,800
068060,805
068160,815
068190,819
068250,825
068400,840
068405,840
068410,840
068500,850
068507,850
068700,850
068711,850
068720,850
068810,850
068906,850
069780,978
069781,978
069782,978
069783,978
069784,978
069785,978
069786,978
069789,978
069790,978
069791,978
069793,978
069794,978
069795,978
069797,978
069798,978
069799,978
069801,978
069802,978
069803,978
069805,978
069806,978
069807,978
069809,978
069810,978
069811,978
069813,978
069814,978
069815,978
069817,978
069818,978
069819,978
069821,978
069822,978
069823,978
069825,978
069826,978
069827,978
069829,978
069830,978
069831,978
069833,978
069834,978
069835,978
069837,978
069838,978
069839,978
069840,978
069841,978
069842,978
069843,978
069844,978
069845,978
069998,000
090010,001
090011,001
090012,001
090160,016
090163,016
090164,016
090165,016
090166,016
090167,016
090168,016
090169,016
090171,016
090500,050
090501,050
090502,050
090504,050
090600,060
090601,060
090603,060
090604,060
090700,060
090701,060
090810,081
090811,081
091100,110
091101,110
091102,110
091103,110
091104,110
091107,110
091108,110
091109,110
091110,110
091111,110
091112,110
091113,110
091114,110
091115,110
091116,110
091120,110
091121,110
091122,110
091123,110
091124,110
091126,110
091130,110
091131,110
091132,110
091139,110
091141,110
091142,110
091143,110
091144,110
091145,110
091150,110
091151,110
091152,110
091153,110
091154,110
091155,110
091156,110
091157,110
091158,110
091160,110
091167,110
091168,110
091169,110
091170,110
091171,110
091172,110
091173,110
091670,167
091671,167
091672,167
091673,167
091677,167
091679,167
091680,167
091682,167
091684,167
091685,167
091690,167
091692,167
091696,167
091698,167
091700,170
091701,170
091702,170
091703,170
091704,170
091705,170
091706,170
091710,170
091799,170
091890,185
091892,185
091895,185
092000,200
092001,200
092002,200
092003,200
092004,200
092005,200
092006,200
092007,200
092008,200
092009,200
092010,200
092011,200
092012,200
092013,200
092014,200
092015,200
092016,200
092017,200
092018,200
092019,200
092020,200
092021,200
092099,200
092500,250
092501,250
092502,250
092503,250
092504,250
092505,250
092506,250
092507,250
092508,250
092509,250
092510,250
092511,250
092512,250
092513,250
092599,250
093000,300
093001,300
093002,300
093003,300
093004,300
093101,300
093104,300
093105,300
093201,300
093202,300
093301,300
093302,300
093303,300
093304,300
093305,300
093306,300
093307,300
093401,300
093402,300
093403,300
093404,300
093501,300
093605,300
093701,300
093702,300
093703,300
093704,300
093705,300
093706,300
093707,300
093708,300
093710,300
093715,300
093801,300
093802,300
093806,300
093812,300
093813,300
093814,300
093816,300
093817,300
093818,300
093820,300
093824,300
093830,300
093835,300
093848,300
093850,300
093853,300
093854,300
093855,300
093862,300
093868,300
093882,300
093883,300
093885,300
093887,300
093890,300
093891,300
093893,300
093894,300
093895,300
093901,390
093902,390
093903,390
093904,390
093905,390
094000,400
094001,400
094002,400
094003,400
094004,400
094007,400
094009,400
094010,400
094011,400
094013,400
094014,400
094015,400
094016,400
094017,400
094018,400
094019,400
094020,400
094030,400
094032,400
094050,400
094063,400
094066,400
094067,400
094072,400
094074,400
094098,400
095000,500
095002,500
095008,500
095009,500
095011,500
095012,500
095022,500
095023,500
095024,500
095025,500
095111,500
095112,500
095201,500
095203,500
095207,500
095208,500
095210,500
095211,500
095212,500
095214,500
095302,500
095303,500
095305,500
095309,500
095311,500
095317,500
095319,500
095415,500
095417,500
095900,500
095901,500
095903,500
095998,500
096000,600
096001,600
096002,600
096003,600
096004,600
096005,600
096006,600
096007,600
096009,600
096010,600
096011,600
096500,650
096501,650
096502,650
096503,650
096504,650
096505,650
096506,650
096508,650
096511,650
096512,650
096513,650
096599,650
096600,660
096601,660
096602,660
096603,660
096605,660
096810,681
096811,681
096812,681
096813,681
096814,681
096815,681
096816,681
096817,681
097010,701
097019,701
097020,701
097040,701
097060,701
097070,701
097080,701
097150,701
097170,701
097190,701
097200,701
098050,805
098051,805
098052,805
098150,815
098151,815
098152,815
098153,815
098154,815
098190,819
098191,819
098193,819
098195,819
098400,840
098401,840
098402,840
098403,840
098404,840
098405,840
098406,840
098500,850
098501,850
098502,850
098505,850
098509,850
098541,850
099780,978
099781,978
099782,978
099783,978
099784,978
099785,978
099786,978
099787,978
099788,978
099789,978
099790,978
099791,978
099793,978
099794,978
099795,978
099797,978
099798,978
099799,978
099801,978
099802,978
099803,978
099805,978
099806,978
099807,978
099809,978
099810,978
099811,978
099813,978
099814,978
099815,978
099816,978
099817,978
099818,978
099819,978
099820,978
099821,978
099822,978
099823,978
099825,978
099826,978
099827,978
099829,978
099830,978
099831,978
099833,978
099834,978
099835,978
099837,978
099838,978
099839,978
099840,978
099841,978
099842,978
099900,990
099902,990
099903,990
099904,990
099905,990
099906,990
099907,990
099909,990
099910,990
099911,990
099915,990
099916,990
099917,990
099998,000
099999,999
100010,001
100040,001
100130,016
100140,016
100150,016
100159,016
100160,016
100165,016
100170,016
100500,050
100510,050
100640,060
100641,060
100645,060
100646,060
100647,060
100649,060
100810,081
101010,110
101020,110
101021,110
101022,110
101023,110
101024,110
101030,110
101040,110
101050,110
101060,110
101061,110
101070,110
101071,110
101080,110
101081,110
101090,110
101100,110
101110,110
101119,110
101120,110
101130,110
101140,110
101150,110
101160,110
101170,110
101180,110
101190,110
101200,110
101210,110
101220,110
101230,110
101240,110
101250,110
101260,110
101270,110
101280,110
101320,110
101330,110
101340,110
101350,110
101360,110
101370,110
101380,110
101390,110
101400,110
101410,110
101420,110
101430,110
101440,110
101450,110
101460,110
101462,110
101470,110
101480,110
101490,110
101500,110
101510,110
101520,110
101530,110
101540,110
101550,110
101560,110
101570,110
101580,110
101590,110
101600,110
101610,110
101619,110
101630,110
101640,110
101680,167
101693,167
101700,170
101719,170
101720,170
101721,170
101730,170
101740,170
101750,170
101760,170
101770,170
101810,170
101820,170
101830,170
101980,185
102010,200
102011,200
102020,200
102021,200
102028,200
102029,200
102030,200
102040,200
102049,200
102050,200
102059,200
102060,200
102069,200
102070,200
102079,200
102080,200
102089,200
102090,200
102099,200
102100,200
102109,200
102110,200
102119,200
102120,200
102121,200
102128,200
102129,200
102130,200
102131,200
102132,200
102133,200
102134,200
102139,200
102140,200
102141,200
102142,200
102143,200
102144,200
102145,200
102146,200
102149,200
102150,200
102151,200
102152,200
102153,200
102154,200
102155,200
102156,200
102157,200
102170,200
102171,200
102172,200
102173,200
102180,200
102181,200
102190,200
102191,200
102200,200
102201,200
102210,200
102211,200
102212,200
102220,200
102229,200
102230,200
102240,200
102249,200
102250,200
102259,200
102260,200
102270,200
102279,200
102280,200
102289,200
102290,200
102299,200
102300,200
102309,200
102310,200
102319,200
102320,200
102329,200
102330,200
102339,200
102340,200
102341,200
102348,200
102349,200
102350,200
102359,200
102360,200
102369,200
102370,200
102379,200
102380,200
102381,200
102382,200
102388,200
102389,200
102390,200
102391,200
102392,200
102393,200
102394,200
102395,200
102396,200
102397,200
102398,200
102399,200
102400,200
102401,200
102402,200
102403,200
102404,200
102409,200
102410,200
102411,200
102412,200
102413,200
102414,200
102415,200
102490,200
102491,200
102494,200
102510,250
102519,250
102520,250
102530,250
102630,250
102631,250
102632,250
102640,250
102641,250
102642,250
102650,250
102651,250
102652,250
102653,250
102660,250
102670,250
102680,250
102700,250
102710,250
102720,250
102730,250
102740,250
102750,250
102760,250
102770,250
102780,250
102790,250
102800,250
102810,250
102820,250
102900,250
103010,300
103020,300
103030,300
103040,300
103050,300
103060,300
103070,300
103080,300
103090,300
103100,300
103110,300
103120,300
103130,300
103140,300
103150,300
103160,300
103170,300
103180,300
103190,300
103200,300
103210,300
103230,300
103240,300
103250,300
103260,300
103270,300
103280,300
103290,300
103300,300
103310,300
103330,300
103360,300
103370,300
103380,300
103400,300
103440,390
103480,300
103500,300
103510,300
103540,300
103550,300
103570,300
103580,300
103590,300
103600,300
103610,300
103620,300
103630,300
103650,300
103660,300
103670,300
103680,300
103690,300
103700,300
103701,300
103703,300
103706,300
103711,300
103712,300
103714,300
103715,300
103718,300
103730,300
103750,300
103760,300
103770,300
103780,300
103790,300
103800,300
103820,300
103860,300
103880,300
103890,300
103900,300
103910,300
103920,300
103930,390
103940,300
103953,300
103956,390
103960,390
103980,300
103990,390
104010,400
104019,400
104020,400
104030,400
104040,400
104050,400
104070,400
104090,400
104110,400
104120,400
104140,400
104210,400
104220,400
104230,400
104240,400
104250,400
104260,400
104290,400
104300,400
104320,400
104350,400
104360,400
104370,400
104380,400
104400,400
104410,400
104430,400
104440,400
104450,400
104460,400
104470,400
104480,400
104630,400
104640,400
104660,400
104730,400
104740,400
104750,400
104800,400
104810,400
104900,400
104970,400
105010,500
105020,500
105030,500
105040,500
105050,500
105060,500
105070,500
105080,500
105090,500
105100,500
105110,500
105120,500
105130,500
105140,500
105150,500
105160,500
105170,500
105180,500
105190,500
105200,500
105210,500
105220,500
105230,500
105240,500
105250,500
105260,500
105280,500
105290,500
105300,500
105310,500
105330,500
105340,500
105360,500
105380,500
105390,500
105400,500
105410,500
105420,500
105430,500
105440,500
105450,500
105470,500
105480,500
105490,500
105510,500
105520,500
105530,500
105540,500
105550,500
105560,500
105570,500
105580,500
105590,500
105660,500
105670,500
105680,500
105690,500
105700,500
105730,500
105810,500
105870,500
105880,500
105890,500
105910,500
105920,500
105930,500
105940,500
105970,500
105980,500
105990,500
106010,600
106060,600
106070,600
106080,600
106110,600
106111,600
106112,600
106210,600
106219,600
106230,600
106520,650
106530,650
106531,650
106532,650
106533,650
106534,650
106539,650
106540,650
106549,650
106550,650
106560,650
106561,650
106562,650
106580,650
106610,660
106620,660
106630,660
106640,660
106750,660
106820,681
106830,681
106899,681
106900,690
107010,701
107020,701
107030,701
107040,701
107050,701
107060,701
107070,701
107080,701
107090,701
107100,701
107110,701
107130,701
107140,701
107150,701
107170,701
107180,701
107190,701
107200,701
108030,805
108039,805
108150,815
108159,815
108190,819
108191,819
108192,819
108193,819
108400,840
108405,840
108409,840
108820,850
108850,850
108900,850
108910,850
108920,850
108930,850
108940,850
108980,850
109702,900
109706,900
109780,978
109781,978
109782,978
109783,978
109784,978
109785,978
109786,978
109787,978
109789,978
109790,978
109793,978
109794,978
109795,978
109796,978
109797,978
109798,978
109799,978
109801,978
109802,978
109803,978
109805,978
109806,978
109807,978
109809,978
109810,978
109811,978
109813,978
109814,978
109815,978
109817,978
109818,978
109819,978
109821,978
109822,978
109823,978
109825,978
109826,978
109827,978
109829,978
109830,978
109831,978
109837,978
109838,978
109839,978
109998,000
110030,001
111690,167
111800,170
111810,170
111910,185
112400,200
112740,250
113610,300
113614,300
113615,300
113616,300
113620,300
113621,300
113630,300
113640,300
113670,300
113760,390
113770,300
113821,300
114310,400
114320,400
114350,400
116580,650
116850,681
117200,701
117209,701
119900,990
119910,990
119920,990
119930,990
119940,990
119998,000
130010,001
130020,001
130130,016
130510,050
130600,060
130750,060
130810,081
131660,170
131670,167
131671,167
131672,167
131680,167
131690,167
131700,170
131710,170
131780,170
132000,200
132100,200
132200,200
132250,200
132309,200
132315,200
132316,200
132317,200
132320,200
132321,200
132322,200
132323,200
132324,200
132325,200
132326,200
132330,200
132331,200
132332,200
132333,200
132334,200
132335,200
132336,200
132500,250
132510,250
132520,250
132710,250
133000,300
133100,300
133110,300
133120,300
133350,300
133400,390
133420,300
133450,300
133500,300
133520,300
133550,300
133600,300
133650,300
133700,300
133750,300
133751,300
133752,300
133753,300
133755,300
133756,300
133757,300
133758,300
133759,300
133760,300
133850,300
134100,400
134105,400
134130,400
134140,400
134150,400
134400,400
134500,400
136000,600
136100,600
136500,650
136510,650
136520,650
136521,650
136530,650
136540,650
136550,650
136560,650
136570,650
136575,650
136580,650
136590,650
136820,681
136830,681
136900,690
137000,701
137010,701
137011,701
137021,701
137031,701
137041,701
137051,701
137061,701
137071,701
137081,701
137091,701
137101,701
137110,701
137111,701
137131,701
137141,701
137150,701
137151,701
137171,701
137181,701
137190,701
137191,701
137201,701
138000,800
138030,805
138100,810
138101,810
138400,840
138500,850
138510,850
138600,850
138650,850
138700,850
138910,850
139780,978
139781,978
139782,978
139785,978
139786,978
139789,978
139790,978
139791,978
139793,978
139794,978
139795,978
139797,978
139798,978
139799,978
139801,978
139802,978
139803,978
139805,978
139806,978
139807,978
139809,978
139810,978
139811,978
139813,978
139814,978
139815,978
139817,978
139818,978
139819,978
139821,978
139822,978
139823,978
139825,978
139826,978
139827,978
139829,978
139830,978
139831,978
139833,978
139834,978
139835,978
139837,978
139838,978
139839,978
139900,990
139901,990
139905,990
139910,990
139920,990
139921,990
139922,990
139923,990
139924,990
139931,990
139932,990
139933,990
139934,990
139998,000
140010,001
140020,001
140050,001
140160,016
140165,016
140170,016
140171,016
140172,016
140173,016
140174,016
140510,050
140515,050
140520,050
140600,060
140625,060
140810,081
141010,110
141020,110
141030,110
141040,110
141060,110
141070,110
141100,110
141110,110
141120,110
141130,110
141140,110
141150,110
141160,110
141200,110
141210,110
141220,110
141230,110
141240,110
141250,110
141260,110
141270,110
141300,110
141310,110
141320,110
141330,110
141340,110
141350,110
141360,110
141370,110
141380,110
141390,110
141400,110
141410,110
141420,110
141430,110
141440,110
141450,110
141460,110
141470,110
141480,110
141490,110
141500,110
141510,110
141520,110
141530,110
141540,110
141550,110
141560,110
141570,110
141580,110
141590,110
141675,167
141680,167
141700,170
141710,170
141720,170
141730,170
141740,170
141750,170
141760,170
141770,170
141772,170
141780,170
141790,170
141800,170
141810,170
141820,170
141850,185
141860,185
141870,185
142000,200
142001,200
142002,200
142040,200
142050,200
142060,200
142070,200
142080,200
142090,200
142100,200
142210,200
142220,200
142230,200
142240,200
142300,200
142310,200
142320,200
142330,200
142331,200
142332,200
142333,200
142334,200
142335,200
142340,200
142341,200
142342,200
142343,200
142344,200
142345,200
142370,200
142400,200
142410,200
142420,200
142500,250
142600,250
142700,250
142900,250
142910,250
142920,250
142930,250
142950,250
142955,250
142960,250
142965,250
142970,250
142975,250
142980,250
143000,300
143001,300
143002,300
143003,300
143004,300
143005,300
143006,300
143007,300
143008,300
143050,300
143070,300
143090,300
143130,300
143140,300
143150,300
143180,300
143200,300
143210,300
143220,300
143225,300
143230,300
143240,300
143250,300
143260,300
143270,300
143300,300
143310,300
143320,300
143330,300
143350,300
143370,300
143390,300
143450,300
143490,300
143500,300
143510,300
143520,300
143530,300
143540,300
143550,300
143560,300
143570,300
143580,300
143590,300
143600,300
143610,300
143630,300
143640,300
143650,300
143661,300
143670,300
143680,300
143710,300
143720,300
143740,300
143750,390
143760,390
143920,300
143998,300
144000,400
144010,400
144020,400
144100,400
144110,400
144170,400
144180,400
144230,400
144270,400
144300,400
144310,400
144340,400
144380,400
144390,400
144410,400
144420,400
144430,400
144440,400
144460,400
144510,400
144520,400
144530,400
144560,400
144570,400
144600,400
144610,400
144620,400
144640,400
144700,400
144750,400
145000,500
145020,500
145030,500
145040,500
145050,500
145060,500
145200,500
145320,500
145360,500
145460,500
145520,500
145560,500
145640,500
145990,500
146000,600
146100,600
146110,600
146200,600
146300,600
146400,600
146450,600
146500,650
146505,650
146510,650
146512,650
146514,650
146516,650
146518,650
146520,650
146530,650
146535,650
146540,650
146560,650
146590,650
146610,660
146620,660
146640,660
146800,660
146810,681
146820,681
146825,681
146830,681
146900,690
146910,690
146920,690
147000,701
147011,701
147020,701
147040,701
147041,701
147060,701
147061,701
147090,701
147091,701
147110,701
147130,701
147131,701
147150,701
147151,701
147170,701
147190,701
147200,701
147201,701
148030,805
148150,815
148155,815
148165,815
148167,815
148190,819
148193,819
148195,819
148250,825
148251,825
148252,825
148253,825
148254,825
148255,825
148259,825
148400,840
148420,840
148430,840
148440,840
148580,850
148750,850
148760,850
148810,850
148900,850
149780,978
149781,978
149782,978
149783,978
149784,978
149785,978
149786,978
149787,978
149789,978
149790,978
149791,978
149793,978
149794,978
149795,978
149797,978
149798,978
149799,978
149801,978
149802,978
149803,978
149805,978
149806,978
149807,978
149809,978
149810,978
149811,978
149813,978
149814,978
149815,978
149816,978
149817,978
149818,978
149819,978
149821,978
149822,978
149823,978
149825,978
149826,978
149827,978
149829,978
149830,978
149831,978
149833,978
149834,978
149835,978
149837,978
149838,978
149900,990
149910,990
149920,990
149930,990
149940,990
149998,000
201683,167
201696,167
201697,167
201710,170
201780,170
201790,170
201800,170
202690,250
203401,300
203651,300
203652,300
203653,300
203654,300
203655,300
203658,300
203659,300
203661,300
203662,300
204951,400
204961,400
204971,400
206570,650
206821,681
209833,978
209834,978
209835,978
209836,978
209901,990
209911,990
209912,990
209913,990
209914,990
209915,990
209916,990
209919,990
209938,990
209939,990
220090,001
220130,016
220600,060
220610,060
220810,081
221000,110
221665,167
221671,167
221689,167
221699,167
221700,170
221800,170
221810,170
221830,170
221850,185
222500,250
223000,300
223020,300
223030,300
223040,300
223050,300
223075,300
223080,300
223090,300
223100,300
223110,300
223112,300
223113,300
223120,300
223200,300
223320,300
223340,300
223350,300
223360,300
223370,300
223380,300
223390,300
223900,390
224000,400
224330,400
224360,400
224370,400
224380,400
226010,600
226020,600
226500,650
226610,660
226890,681
227010,701
229780,978
229781,978
229782,978
229783,978
229784,978
229785,978
229786,978
229789,978
229790,978
229791,978
229793,978
229794,978
229795,978
229797,978
229798,978
229799,978
229801,978
229802,978
229803,978
229805,978
229806,978
229807,978
229809,978
229810,978
229811,978
229813,978
229814,978
229815,978
229817,978
229818,978
229819,978
229821,978
229822,978
229823,978
229825,978
229826,978
229827,978
229829,978
229830,978
229831,978
229833,978
229834,978
229835,978
229837,978
229838,978
229839,978
229840,978
229841,978
229842,978
229910,990
229911,990
229912,990
229913,990
229914,990
229915,990
229916,990
229998,000
230010,001
230500,050
230810,081
231160,110
231199,110
231700,170
231701,170
231702,170
231703,170
231705,170
231799,170
231850,185
232000,200
232001,200
232500,250
232505,250
232506,250
232507,250
232508,250
232509,250
232510,250
232511,250
232512,250
232513,250
232599,250
233000,300
233010,300
233011,300
233015,300
233016,300
233020,300
233025,300
233040,300
233041,300
233099,300
233900,390
233901,390
234000,400
234010,400
234020,400
234030,400
234040,400
234099,400
236000,600
236500,650
236599,650
236610,660
236810,681
236820,681
236821,681
236822,681
236823,681
237010,701
237020,701
237030,701
237199,701
238100,250
238400,840
238405,840
239780,978
239781,978
239782,978
239783,978
239784,978
239785,978
239786,978
239787,978
239788,978
239789,978
239790,978
239791,978
239792,978
239793,978
239794,978
239795,978
239796,978
239900,990
239901,990
239902,990
239903,990
239904,990
239905,990
239906,990
239907,990
239908,990
239909,990
239998,000
240000,000
240000,000
240000,000
240000,000
240000,000
240000,000
240000,000
240000,000
240000,000
240000,000
240000,000
240000,000
240000,000
240000,000
240000,000
240000,000
240000,000
240000,000
240000,000
240000,000
240000,000
240000,000
240000,000
240000,000
240000,000
240000,000
240010,001
240018,001
240160,016
240161,016
240162,016
240163,016
240164,016
240165,016
240167,016
240168,016
240500,050
240600,060
240601,060
240602,060
240603,060
240604,060
240698,060
240810,081
241100,110
241105,110
241110,110
241111,110
241112,110
241113,110
241114,110
241115,110
241116,110
241117,110
241118,110
241120,110
241121,110
241122,110
241123,110
241124,110
241125,110
241126,110
241127,110
241128,110
241129,110
241130,110
241131,110
241132,110
241133,110
241134,110
241135,110
241136,110
241137,110
241138,110
241140,110
241141,110
241142,110
241143,110
241144,110
241145,110
241146,110
241147,110
241148,110
241149,110
241150,110
241151,110
241152,110
241153,110
241154,110
241160,110
241161,110
241162,110
241163,110
241164,110
241165,110
241166,110
241167,110
241168,110
241169,110
241171,110
241198,110
241685,167
241690,167
241700,170
241701,170
241702,170
241705,170
241707,170
241708,170
241730,170
241731,170
241732,170
241733,170
241734,170
241735,170
241798,170
241799,170
241850,185
241854,185
241855,185
241856,185
241857,185
241858,185
242000,200
242001,200
242002,200
242003,200
242004,200
242005,200
242006,200
242007,200
242008,200
242009,200
242010,200
242011,200
242012,200
242015,200
242020,200
242030,200
242035,200
242036,200
242040,200
242050,200
242098,200
242099,200
242500,250
242501,250
242502,250
242503,250
242504,250
242505,250
242507,250
242510,250
242598,250
242599,250
243000,300
243001,300
243002,300
243004,300
243005,300
243007,300
243008,300
243009,300
243010,300
243011,300
243012,300
243013,300
243014,300
243015,300
243016,300
243017,300
243018,300
243019,300
243020,300
243021,300
243022,300
243023,300
243024,300
243025,300
243026,300
243027,300
243030,300
243033,300
243037,300
243040,300
243041,300
243043,300
243044,300
243045,300
243050,300
243059,300
243062,300
243063,300
243064,300
243065,300
243066,300
243067,300
243068,300
243070,300
243071,300
243098,300
243101,300
243110,300
243598,300
243599,300
243900,390
243905,390
243998,390
244000,400
244010,400
244020,400
244040,400
244050,400
244070,400
244080,400
244090,400
244098,400
244099,400
244110,400
244115,400
244120,400
244140,400
244170,400
244180,400
244190,400
244196,400
244210,400
244220,400
244230,400
244260,400
244275,400
245000,500
245002,500
245003,500
245004,500
245005,500
245006,500
245007,500
245008,500
245009,500
245010,500
245011,500
245012,500
245015,500
245016,500
245017,500
245018,500
245019,500
245020,500
245021,500
245022,500
245023,500
245024,500
245025,500
245026,500
245027,500
245028,500
245029,500
245095,500
245098,500
245101,500
245105,500
245106,500
245107,500
245108,500
245110,500
245111,500
245900,500
246000,600
246001,600
246002,600
246003,600
246004,600
246005,600
246098,600
246500,650
246501,650
246502,650
246503,650
246504,650
246505,650
246506,650
246510,650
246597,650
246598,650
246599,650
246610,660
246618,660
246620,660
246621,662
246622,662
246810,681
246820,681
246821,681
246822,681
246850,681
246898,681
247010,701
247020,701
247030,701
247040,701
247060,701
247090,701
247100,701
247130,701
247131,701
247150,701
247170,701
247190,701
247200,701
248000,800
248050,805
248100,810
248101,810
248150,815
248151,815
248158,815
248190,819
248191,819
248400,840
248401,840
248405,840
248500,850
248505,850
248510,850
248550,850
248551,850
249780,978
249781,978
249782,978
249783,978
249784,978
249785,978
249786,978
249787,978
249789,978
249790,978
249791,978
249793,978
249794,978
249795,978
249797,978
249798,978
249799,978
249801,978
249802,978
249803,978
249805,978
249806,978
249807,978
249809,978
249810,978
249811,978
249812,978
249813,978
249814,978
249815,978
249817,978
249818,978
249819,978
249821,978
249822,978
249823,978
249825,978
249826,978
249827,978
249829,978
249830,978
249831,978
249832,978
249833,978
249834,978
249835,978
249838,978
249899,989
249900,990
249901,990
249902,990
249903,990
249904,990
249905,990
249907,990
249908,990
249909,990
249910,990
249911,990
249912,990
249913,990
249914,990
249915,990
249916,990
249917,990
249919,990
249920,990
249998,000
249999,999
250110,001
250740,060
251688,167
251690,167
251698,167
251800,170
251802,170
251803,170
251810,170
251811,170
251820,170
251830,170
251970,185
251973,185
252900,250
252910,250
252920,250
252930,250
252940,250
253899,300
253900,390
253902,390
253910,390
253911,390
253912,390
253914,300
253920,390
253922,390
253930,390
253931,390
253933,390
253934,390
253939,390
253940,390
253945,390
253983,390
253986,390
253991,390
253992,390
253993,390
253994,390
253995,390
254900,400
254910,400
254911,400
254912,400
254923,400
254980,400
256590,650
256591,650
256592,650
256870,681
256871,681
256980,690
257900,701
257910,701
257911,701
257920,701
257950,701
257970,701
259876,978
259877,978
259878,978
259900,990
259901,990
259902,990
259903,990
259904,990
259905,990
259906,990
259907,990
259908,990
259909,990
259910,990
259911,990
259921,990
259922,990
259923,990
259924,990
259925,990
259927,990
259998,000
350010,001
350011,001
350012,001
350013,001
350014,001
350015,001
350016,001
350160,016
350161,016
350163,016
350164,016
350165,016
350166,016
350167,016
350168,016
350169,016
350500,050
350501,050
350502,050
350600,060
350605,060
350606,060
350609,060
350810,081
350811,081
351100,110
351101,110
351102,110
351103,110
351104,110
351105,110
351106,110
351107,110
351108,110
351111,110
351112,110
351113,110
351115,110
351116,110
351118,110
351120,110
351121,110
351122,110
351123,110
351124,110
351125,110
351126,110
351127,110
351128,110
351129,110
351130,110
351131,110
351132,110
351133,110
351134,110
351135,110
351137,110
351138,110
351139,110
351140,110
351141,110
351142,110
351143,110
351144,110
351145,110
351146,110
351147,110
351148,110
351149,110
351150,110
351151,110
351152,110
351154,110
351155,110
351157,110
351160,110
351161,110
351162,110
351163,110
351164,110
351165,110
351166,110
351167,110
351168,110
351198,110
351199,110
351671,167
351677,167
351679,167
351690,167
351700,170
351704,170
351705,170
351706,170
351709,170
351710,170
351711,170
351712,170
351713,170
351714,170
351715,170
351716,170
351717,170
351718,170
351719,170
351720,170
351721,170
351722,170
351798,170
352000,200
352006,200
352007,200
352008,200
352009,200
352010,200
352011,200
352012,200
352013,200
352015,200
352016,200
352017,200
352018,200
352019,200
352020,200
352021,200
352022,200
352023,200
352024,200
352027,200
352028,200
352029,200
352030,200
352032,200
352033,200
352098,200
352099,200
352107,200
352108,200
352109,200
352111,200
352112,200
352113,200
352116,200
352117,200
352118,200
352119,200
352121,200
352122,200
352123,200
352124,200
352130,200
352133,200
352500,250
352504,250
352505,250
352506,250
352507,250
352508,250
352509,250
352510,250
352511,250
352512,250
352513,250
352514,250
352515,250
352516,250
353000,300
353099,300
353303,300
353304,300
353306,300
353307,300
353308,300
353309,300
353311,300
353312,300
353314,300
353315,300
353316,300
353317,300
353318,300
353320,300
353322,300
353324,300
353327,300
353328,300
353329,300
353331,300
353332,300
353333,300
353336,300
353337,300
353340,300
353341,300
353342,300
353343,300
353346,300
353347,300
353348,300
353349,300
353350,300
353351,300
353352,300
353353,300
353354,300
353355,300
353356,300
353357,300
353358,300
353359,300
353362,300
353364,300
353366,300
353367,300
353375,300
353376,300
353377,300
353379,300
353380,300
353385,300
353389,300
353390,300
353397,300
353398,300
353399,300
353400,300
353402,300
353403,300
353404,300
353406,300
353408,300
353498,300
353501,300
353900,390
353999,390
354000,400
354701,400
354702,400
354706,400
354708,400
354711,400
354714,400
354715,400
354716,400
354717,400
354718,400
354720,400
354724,400
354730,400
354731,400
354733,400
354736,400
354747,400
354760,400
354761,400
354762,400
354764,400
354765,400
354768,400
354779,400
354798,400
354916,400
355000,500
355201,500
355202,500
355204,500
355205,500
355206,500
355207,500
355208,500
355211,500
355214,500
355217,500
355218,500
355219,500
355220,500
355221,500
355224,500
355225,500
355227,500
355228,500
355229,500
355230,500
355234,500
355236,500
355240,500
355241,500
355242,500
355243,500
355260,500
355261,500
355262,500
355263,500
355264,500
355266,500
355270,500
355273,500
355274,500
355275,500
355276,500
355284,500
355288,500
355290,500
355291,500
355292,500
355294,500
355295,500
355296,500
355297,500
355298,500
355299,500
355300,500
355301,500
355998,500
355999,500
356000,600
356001,600
356002,600
356004,600
356005,600
356006,600
356008,600
356009,600
356011,600
356013,600
356014,600
356098,600
356500,650
356501,650
356502,650
356504,650
356505,650
356506,650
356507,650
356508,650
356510,650
356511,650
356512,650
356513,650
356514,650
356515,650
356516,650
356517,650
356518,650
356519,650
356598,650
356599,650
356609,660
356610,661
356614,660
356810,681
356815,681
357010,701
357011,701
357012,701
357013,701
357014,701
357015,701
357016,701
357017,701
357018,701
357019,701
357020,701
357021,701
357026,701
357027,701
357040,701
357050,701
357060,701
357130,701
357150,701
357170,701
357190,701
357200,701
357998,701
357999,701
358003,800
358004,800
358050,805
358052,805
358099,805
358150,815
358151,815
358152,815
358153,815
358190,819
358191,819
358192,819
358400,840
358401,840
358402,840
358403,840
358405,840
358406,840
358584,850
359780,978
359781,978
359785,978
359786,978
359787,978
359789,978
359790,978
359791,978
359793,978
359794,978
359795,978
359797,978
359798,978
359799,978
359801,978
359802,978
359803,978
359805,978
359806,978
359807,978
359809,978
359810,978
359811,978
359813,978
359814,978
359815,978
359817,978
359818,978
359819,978
359821,978
359822,978
359823,978
359825,978
359826,978
359827,978
359829,978
359830,978
359831,978
359833,978
359834,978
359835,978
359837,978
359838,978
359839,978
359900,990
359903,990
359904,990
359905,990
359906,990
359907,990
359908,990
359909,990
359910,990
359911,990
359912,990
359913,990
359914,990
359915,990
359916,990
359917,990
359918,990
359919,990
359920,990
359921,990
359922,990
359923,990
359924,990
359925,990
359927,990
359928,990
359929,990
359930,990
359931,990
359932,990
359933,990
359998,000
360010,001
360130,016
360131,016
360140,016
360150,016
360160,016
360170,016
360500,050
360510,050
360600,060
360650,060
360810,081
361100,110
361103,110
361105,110
361106,110
361107,110
361109,110
361110,110
361111,110
361112,110
361113,110
361114,110
361115,110
361116,110
361117,110
361118,110
361119,110
361120,110
361121,110
361122,110
361123,110
361124,110
361125,110
361126,110
361127,110
361128,110
361129,110
361130,110
361131,110
361134,110
361135,110
361137,110
361138,110
361139,110
361140,110
361199,110
361670,167
361700,170
361720,170
361730,170
361740,170
361750,170
361850,185
361860,185
361865,185
361870,185
361875,185
362000,200
362020,200
362025,200
362030,200
362035,200
362042,200
362043,200
362050,200
362500,250
362520,250
362530,250
362535,250
362540,250
363000,300
363001,300
363005,300
363006,300
363100,300
363110,300
363160,300
363170,300
363180,300
363190,300
363210,300
363220,300
363230,300
363240,300
363250,300
363270,300
363280,300
363296,300
363298,300
363299,300
363300,300
363301,300
363302,300
363303,300
363305,300
363306,300
363308,300
363309,300
363313,300
363360,300
363404,300
363500,300
363501,300
363502,300
363503,300
363602,300
363603,300
363607,300
363700,300
363701,300
363702,300
363740,300
363750,300
363770,300
363791,300
363793,300
363796,300
363851,300
363867,300
363873,300
363900,390
363901,390
364000,400
364005,400
364100,400
364110,400
364120,400
364130,400
364150,400
364154,400
364160,400
364180,400
364199,400
364200,400
364210,400
364220,400
364230,400
364250,400
364260,400
364270,400
364274,400
364290,400
364295,400
364300,400
364715,400
364800,400
364810,400
364840,400
365000,500
365005,500
365010,500
365020,500
365030,500
366000,600
366010,600
366500,650
366550,650
366560,650
366600,660
366810,681
367000,701
367010,701
367020,701
367030,701
367040,701
367060,701
367080,701
367150,701
367170,701
367190,701
368050,805
368150,815
368155,815
368190,819
368400,840
368405,840
368500,850
368741,850
368840,850
368860,850
368870,850
368871,850
368880,850
369780,978
369781,978
369782,978
369783,978
369784,978
369785,978
369788,978
369789,978
369790,978
369791,978
369793,978
369794,978
369795,978
369797,978
369798,978
369799,978
369801,978
369802,978
369803,978
369805,978
369806,978
369807,978
369809,978
369810,981
369811,978
369813,978
369814,978
369815,978
369817,978
369818,978
369819,978
369821,978
369822,978
369823,978
369825,978
369826,978
369827,978
369829,978
369830,978
369831,978
369837,978
369838,978
369839,978
369850,985
369860,986
369862,986
369870,987
369871,978
369998,000
420010,001
420130,016
420150,016
420160,016
420500,050
420510,050
420600,060
420810,081
421234,110
421670,167
421675,167
421680,167
421700,170
421720,170
421740,170
421750,170
421850,185
422500,250
422540,250
423000,300
423100,300
423120,300
423130,300
423135,300
423140,300
423150,300
423160,300
423180,300
423200,300
423210,300
423610,300
423611,300
423900,390
424000,400
424100,400
424120,400
424130,400
426000,600
426500,650
426560,650
426565,650
426810,681
427060,701
427150,701
428150,815
428400,840
429780,978
429781,978
429782,978
429783,978
429784,978
429785,978
429788,978
429789,978
429790,978
429793,978
429794,978
429797,978
429798,978
429805,978
429809,978
429811,978
429813,978
429814,978
429817,978
429821,978
429822,978
429825,978
429826,978
429827,978
429829,978
429830,978
429900,990
429901,990
429905,990
429998,000
430010,001
430160,016
430169,016
430500,050
430600,060
430609,060
430810,081
430819,081
431000,110
431009,110
431090,110
431091,110
431093,110
431094,110
431097,110
431098,110
431099,110
431101,110
431102,110
431103,110
431104,110
431105,110
431106,110
431109,110
431110,110
431111,110
431112,110
431113,110
431114,110
431115,110
431116,110
431117,110
431119,110
431120,110
431121,110
431123,110
431124,110
431126,110
431127,110
431128,110
431131,110
431132,110
431133,110
431670,167
431700,170
431701,170
431702,170
431703,170
431704,170
431705,170
431706,170
431707,170
431708,170
431709,170
431711,170
431713,170
432000,200
432400,200
432410,200
432420,200
432500,250
432501,250
432502,250
432504,250
432505,250
432509,250
433000,300
433009,300
433010,300
433020,300
433050,300
433052,300
433053,300
433070,300
433090,300
433100,300
433103,300
433140,300
433150,300
433160,300
433165,300
433170,300
433181,300
433190,300
433310,300
433400,300
433402,300
433417,300
433610,300
433620,300
433635,300
433685,300
433800,300
433900,390
434000,400
434009,400
434010,400
434016,400
434020,400
434040,400
434060,400
434070,400
434080,400
434082,400
434086,400
434100,400
434111,400
434120,400
434150,400
434152,400
434153,400
435000,500
435010,500
435250,500
436000,600
436009,600
436500,650
436509,650
436550,650
436600,660
436609,660
436810,681
436819,681
437000,701
437009,701
437900,701
438150,815
438159,815
438190,819
438400,840
438500,850
438700,850
438710,850
438740,850
438750,850
438760,850
439780,978
439781,978
439782,978
439785,978
439789,978
439791,978
439793,978
439795,978
439797,978
439799,978
439801,978
439805,978
439807,978
439809,978
439811,978
439813,978
439815,978
439817,978
439819,978
439821,978
439823,978
439825,978
439827,978
439829,978
439831,978
439839,978
439840,978
439900,990
439998,000
440010,001
440169,016
440500,050
440600,060
440609,060
440819,081
441100,110
441109,110
441500,110
441670,167
441672,167
441700,170
441709,170
441850,185
442000,200
442400,200
442420,200
442500,250
442509,250
443000,300
443009,300
443010,300
443011,300
443012,300
443014,300
443015,300
443016,300
443030,300
443050,300
443070,300
443140,300
443162,300
443190,300
443900,390
444009,400
444100,400
444200,400
444410,400
444412,400
446000,600
446009,600
446500,650
446509,650
446600,660
446609,660
446810,681
446819,681
447000,701
447009,701
448159,815
449780,978
449781,978
449782,978
449783,978
449784,978
449785,978
449786,978
449787,978
449788,978
449840,978
449900,990
449998,000
450010,001
450160,016
450500,050
450600,060
450810,081
451000,110
451100,110
451101,110
451102,110
451104,110
451107,110
451108,110
451109,110
451110,110
451111,110
451201,110
451203,110
451208,110
451209,110
451210,110
451303,110
451304,110
451305,110
451670,167
451671,167
451672,167
451673,167
451678,167
451680,167
451700,170
451710,170
451715,170
451720,170
451730,170
451850,185
452000,200
452003,200
452011,200
452100,200
452101,200
452500,250
452501,250
452502,250
452503,250
453000,300
453010,300
453020,300
453040,300
453080,300
453090,300
453100,300
453130,300
453150,300
453160,300
453175,300
453180,300
453230,300
453240,300
453260,300
453270,300
453300,300
453320,300
453330,300
453350,300
453360,300
453370,300
453380,300
453400,300
453410,300
453420,300
453430,300
453440,300
453450,300
453460,300
453530,300
453540,300
453560,300
453580,300
453590,300
453600,300
453610,300
453625,300
453630,300
453670,300
453680,300
453690,300
453720,300
453740,300
453900,390
454000,400
454001,400
454002,400
454003,400
454004,400
454005,400
454006,400
454008,400
454010,400
454012,400
454014,400
454017,400
454021,400
454023,400
454026,400
454028,400
454029,400
454030,400
454050,400
454051,400
454502,400
454504,400
454506,400
454521,400
454522,400
455000,500
455002,500
455003,500
455005,500
455006,500
455007,500
455008,500
455009,500
455010,500
455011,500
455012,500
455013,500
455014,500
455015,500
455017,500
455018,500
455019,500
455020,500
455021,500
455022,500
455024,500
455026,500
455028,500
455029,500
455030,500
455033,500
455034,500
455035,500
455036,500
455040,500
456000,600
456010,600
456500,650
456600,660
456630,660
456810,681
457000,701
457010,701
457020,701
457030,701
457040,701
457050,701
457060,701
457070,701
457350,701
457410,701
457420,701
457840,701
458000,800
458050,805
458100,810
458150,815
458190,819
458400,840
458500,850
458501,850
458502,850
458700,850
458701,850
458702,850
458703,850
458704,850
458705,850
458707,850
458740,850
458750,850
458752,850
458753,850
458754,850
458755,850
459820,978
459821,978
459822,978
459823,978
459825,978
459840,978
459841,978
459842,978
459843,978
459844,978
459845,978
459846,978
459847,978
459848,978
459849,978
459900,990
459901,990
459902,990
459903,990
459904,990
459905,990
459998,000
460010,001
460160,016
460500,050
460600,060
460810,081
461670,167
461671,167
461700,170
461701,170
461702,170
461703,170
461704,170
461705,170
461850,185
462500,250
463000,300
463005,300
463010,300
463011,300
463012,300
463013,300
463030,300
463040,300
463050,300
463060,300
463061,300
463062,300
463063,300
463064,300
463065,300
463070,300
463080,300
463081,300
463082,300
463083,300
463084,300
463090,300
463900,390
463901,390
464000,400
464001,400
464002,400
464020,400
466000,600
466001,600
466500,650
466501,650
466600,660
466810,681
467000,701
467001,701
467010,701
468150,815
468400,840
468401,840
469780,978
469781,978
469872,978
469900,990
469901,990
470010,001
470160,016
470500,050
470600,060
470601,060
470810,081
471670,167
471671,167
471680,167
471690,167
471700,170
471701,170
471702,170
471703,170
471850,185
472500,250
473000,300
473001,300
473003,300
473004,300
473008,300
473010,300
473011,300
473015,300
473016,300
473031,300
473900,390
474000,400
474001,400
474002,400
474003,400
475000,500
475005,500
476000,600
476500,650
476590,650
476810,681
477000,701
478000,800
478150,815
478190,819
478400,840
479900,990
479902,990
479903,990
479904,990
479905,990
479906,990
479907,990
479908,990
479909,990
479912,990
479913,990
479914,990
479915,990
479916,990
479917,990
479918,990
479919,990
479998,000
480010,001
480160,016
480640,060
480810,081
481120,110
481130,110
481140,110
481150,110
481160,110
481170,110
481180,110
481190,110
481200,110
481210,110
481220,110
481500,110
481670,167
481680,167
481692,167
481700,170
481980,185
482510,250
483011,300
483021,300
483031,300
483041,300
483051,300
483061,300
483071,300
483081,300
483091,300
483301,300
483900,390
484010,400
484020,400
486010,600
486530,650
486560,650
486750,660
486820,681
486900,690
487010,701
487011,701
488810,850
489851,978
489852,978
489853,978
489854,978
489855,978
489856,978
489857,978
489858,978
489901,990
489912,990
489913,990
489914,990
489916,990
489939,990
489998,000
590010,001
590160,016
590502,050
590600,060
590810,081
591101,110
591670,167
591700,170
591850,185
592000,200
592500,250
593000,300
594020,400
595000,500
596000,600
596500,650
596610,661
596620,662
596640,664
596810,681
596900,690
598150,815
599900,990
599998,000
600010,001
600160,016
600502,050
600600,060
600810,081
601101,110
601670,167
601700,170
601850,185
602000,200
602500,250
603000,300
603900,390
604020,400
605000,500
606000,600
606500,650
606610,661
606620,662
606640,664
606810,681
606900,690
608150,815
608400,840
608500,850
609998,000
690010,001
690160,016
690161,016
690162,016
690174,016
690510,050
690610,060
690611,060
690810,081
691100,110
691101,110
691103,110
691670,167
691700,170
691701,170
691702,170
691706,170
691710,170
691713,170
692000,200
692003,200
692004,200
692007,200
692009,200
692010,200
692500,250
692501,250
692503,250
692507,250
692508,250
693000,300
693009,300
693900,390
694000,400
694001,400
694002,400
696010,600
696011,600
696012,600
696500,650
696501,650
696502,650
696504,650
696510,650
696610,661
696640,661
696650,661
696810,681
696910,690
696911,690
696912,690
697010,701
697017,701
697019,701
697040,701
697050,701
697061,701
697070,701
698000,805
698150,815
698151,815
698190,819
698400,840
699998,000
010000,170
020000,170
030000,170
050000,170
060000,170
090000,170
100000,170
110000,170
130000,170
140000,170
200000,170
220000,170
230000,170
240000,170
250000,170
350000,170
360000,170
420000,170
430000,170
440000,170
450000,170
460000,170
470000,170
480000,170
590000,170
600000,170
690000,170
